[
    {
        "name": "hyperpipe.surge.sh (Official)",
        "url": "https://hyperpipe.surge.sh",
        "privacy": "https://codeberg.org/Hyperpipe/Hyperpipe/wiki/Privacy"
    },
    {
        "name": "hyperpipe.esmailelbob.xyz",
        "url": "https://hyperpipe.esmailelbob.xyz",
        "privacy": "https://github.com/EsmailELBoBDev2/upptime/blob/master/pri-tos.md"
    },
    {
        "name": "listen.whatever.social",
        "url": "https://listen.whatever.social",
        "privacy": ""
    },
    {
        "name": "hyperpipe.esmail5pdn24shtvieloeedh7ehz3nrwcdivnfhfcedl7gf4kwddhkqd.onion",
        "url": "http://hyperpipe.esmail5pdn24shtvieloeedh7ehz3nrwcdivnfhfcedl7gf4kwddhkqd.onion",
        "privacy": "https://github.com/EsmailELBoBDev2/upptime/blob/master/pri-tos.md"
    },
    {
        "name": "music.adminforge.de",
        "url": "https://music.adminforge.de",
        "privacy": "https://adminforge.de/datenschutz/"
    }
]